switch simple/dump.vcd
$date
	Fri Mar 28 14:44:23 2025
$end
$version
	QuestaSim Version 10.7c
$end
$timescale
	1ns
$end

$scope module tb $end
$var reg 1 ! clk $end

$scope module dut $end
$var parameter 32 " ADDR_WIDTH $end
$var parameter 32 # DATA_WIDTH $end
$var parameter 8 $ ADDR_DIV $end
$var wire 1 % clk $end
$var wire 1 & rstn $end
$var wire 1 ' vld $end
$var wire 1 ( addr [7] $end
$var wire 1 ) addr [6] $end
$var wire 1 * addr [5] $end
$var wire 1 + addr [4] $end
$var wire 1 , addr [3] $end
$var wire 1 - addr [2] $end
$var wire 1 . addr [1] $end
$var wire 1 / addr [0] $end
$var wire 1 0 data [15] $end
$var wire 1 1 data [14] $end
$var wire 1 2 data [13] $end
$var wire 1 3 data [12] $end
$var wire 1 4 data [11] $end
$var wire 1 5 data [10] $end
$var wire 1 6 data [9] $end
$var wire 1 7 data [8] $end
$var wire 1 8 data [7] $end
$var wire 1 9 data [6] $end
$var wire 1 : data [5] $end
$var wire 1 ; data [4] $end
$var wire 1 < data [3] $end
$var wire 1 = data [2] $end
$var wire 1 > data [1] $end
$var wire 1 ? data [0] $end
$var reg 8 @ addr_a [7:0] $end
$var reg 16 A data_a [15:0] $end
$var reg 8 B addr_b [7:0] $end
$var reg 16 C data_b [15:0] $end
$upscope $end
$upscope $end

$scope begin my_pkg $end
$upscope $end

$scope begin std $end
$upscope $end
$enddefinitions $end
#0
$dumpvars
0!
b0 @
b0 A
b0 B
b0 C
b1000 "
b10000 #
b111111 $
0%
0&
x'
x/
x.
x-
x,
x+
x*
x)
x(
x?
x>
x=
x<
x;
x:
x9
x8
x7
x6
x5
x4
x3
x2
x1
x0
$end
#10
1!
1%
#20
0!
0%
1&
#30
1!
1%
1'
1?
0>
1=
1<
0;
1:
09
18
07
06
05
14
13
12
11
00
1/
1.
0-
1,
1+
1*
1)
1(
#40
0!
0%
#50
1!
1%
b11111011 B
b111100010101101 C
0?
1>
0<
1;
19
08
16
15
04
03
0/
1-
0+
0*
#60
0!
0%
#70
1!
1%
b11001110 B
b110011001110110 C
1<
09
18
17
06
05
14
0.
0-
0,
#80
0!
0%
#90
1!
1%
b11000000 B
b110100110111110 C
1?
0<
0:
08
16
04
02
01
1.
1-
1+
1*
0)
0(
#100
0!
0%
#110
1!
1%
b110110 @
b1100010111 A
b0 B
b0 C
0?
0=
1<
1:
18
07
15
13
1/
0.
0-
1)
#120
0!
0%
#130
1!
1%
b0 @
b0 A
b1110001 B
b1011010111010 C
0>
1=
0<
19
17
05
03
12
0/
1.
1-
1,
0+
#140
0!
0%
#150
1!
1%
b1101110 B
b10001111110100 C
1>
0=
09
15
14
02
11
1/
0,
0*
#160
0!
0%
#170
1!
1%
b1000111 B
b100111110110010 C
1?
0>
1<
0;
19
08
06
10
0-
1,
1+
1*
0)
1(
#180
0!
0%
#190
1!
1%
b10111011 B
b1100110101101001 C
0?
1;
0:
07
16
13
01
0.
1-
0,
0(
#200
0!
0%
#210
1!
1%
b110101 @
b1001111001011000 A
b0 B
b0 C
1>
1=
0<
09
18
17
06
05
04
11
0-
1,
0+
0*
1)
#220
0!
0%
#230
1!
1%
b0 @
b0 A
b1001001 B
b1101000110010110 C
1?
0;
08
07
16
01
00
0/
1.
1(
#240
0!
0%
#250
1!
1%
b11001010 B
b1001000000111 C
0=
1<
1;
19
17
06
15
14
1/
1+
0(
#260
0!
0%
#270
1!
1%
b1011011 B
b1110101011011 C
0?
0>
0;
09
18
07
16
04
03
12
0/
0.
1-
1*
0)
1(
#280
0!
0%
#290
1!
1%
b10111100 B
b10011010001000 C
1?
1=
1;
17
06
13
02
11
1/
1.
0,
0*
#300
0!
0%
#310
1!
1%
b10010111 B
b101010110011101 C
0?
0=
0<
0;
08
16
03
12
10
0/
0.
1,
1*
0(
#320
0!
0%
#330
1!
1%
b111100 @
b1110011100000000 A
b0 B
b0 C
1?
1>
1=
1<
1;
19
14
13
02
00
1/
0-
1)
#340
0!
0%
#350
1!
1%
b0 @
b0 A
b1111001 B
b101111101011111 C
0<
0;
1:
09
04
10
1.
0,
0+
#360
0!
0%
#370
1!
1%
b1100011 B
b1101011100100111 C
0?
1<
0:
12
00
0*
0)
#380
0!
0%
#390
1!
1%
b11 @
b111011100001110 A
b0 B
b0 C
0=
1;
18
07
06
05
14
03
02
1,
1*
1(
#400
0!
0%
#410
1!
1%
b0 @
b0 A
b10101011 B
b100100010011010 C
1?
1=
0<
0;
1:
08
17
15
04
12
01
0,
1)
0(
#420
0!
0%
#430
1!
1%
b1100011 B
b10010100100111 C
0'
