reg wr simple/dump.vcd
$date
	Fri Mar 28 01:07:29 2025
$end
$version
	QuestaSim Version 10.7c
$end
$timescale
	1ns
$end

$scope module tb $end
$var reg 1 ! clk $end

$scope module dut $end
$var parameter 32 " ADDR_WIDTH $end
$var parameter 32 # DATA_WIDTH $end
$var parameter 32 $ DEPTH $end
$var parameter 16 % RESET_VAL $end
$var wire 1 & clk $end
$var wire 1 ' rstn $end
$var wire 1 ( sel $end
$var wire 1 ) wr $end
$var wire 1 * addr [7] $end
$var wire 1 + addr [6] $end
$var wire 1 , addr [5] $end
$var wire 1 - addr [4] $end
$var wire 1 . addr [3] $end
$var wire 1 / addr [2] $end
$var wire 1 0 addr [1] $end
$var wire 1 1 addr [0] $end
$var wire 1 2 wdata [15] $end
$var wire 1 3 wdata [14] $end
$var wire 1 4 wdata [13] $end
$var wire 1 5 wdata [12] $end
$var wire 1 6 wdata [11] $end
$var wire 1 7 wdata [10] $end
$var wire 1 8 wdata [9] $end
$var wire 1 9 wdata [8] $end
$var wire 1 : wdata [7] $end
$var wire 1 ; wdata [6] $end
$var wire 1 < wdata [5] $end
$var wire 1 = wdata [4] $end
$var wire 1 > wdata [3] $end
$var wire 1 ? wdata [2] $end
$var wire 1 @ wdata [1] $end
$var wire 1 A wdata [0] $end
$var reg 16 B rdata [15:0] $end
$var reg 1 C ready $end
$var reg 1 D ready_dly $end
$var wire 1 E ready_pe $end
$upscope $end
$upscope $end

$scope begin tb_top_sv_unit $end
$upscope $end

$scope begin std $end
$upscope $end
$enddefinitions $end
#0
$dumpvars
0!
bx B
1C
1D
b1000 "
b10000 #
b100000000 $
b1010100000111 %
0E
0&
0'
0(
x)
x1
x0
x/
x.
x-
x,
x+
x*
xA
x@
x?
x>
x=
x<
x;
x:
x9
x8
x7
x6
x5
x4
x3
x2
$end
#10
1!
1&
#20
0!
0&
1'
#30
1!
1&
b0 B
1(
0A
0@
1?
0>
1=
0<
0;
0:
19
08
07
06
15
14
03
02
11
00
0/
0.
1-
1,
0+
0*
1)
#40
0!
0&
#50
1!
1&
1A
1>
1:
16
13
12
1*
#60
0!
0&
#70
1!
1&
1@
0?
0>
0=
1<
09
05
01
1/
0-
1+
0)
#80
0!
0&
#90
1!
1&
0C
b1010100000111 B
1E
0A
1=
0<
0:
17
06
03
11
0/
1-
0+
0*
1)
#100
0!
0&
#110
1!
1&
b0 B
1C
0D
0E
#120
0!
0&
#130
1!
1&
1D
1A
1>
0=
1:
07
16
04
13
10
0,
1+
1*
#140
0!
0&
#150
1!
1&
0A
0@
0>
0:
18
06
03
02
1/
1.
1,
0+
0*
#160
0!
0&
#170
1!
1&
1@
1?
1<
1;
19
13
12
0,
1+
1*
#180
0!
0&
#190
1!
1&
1A
0?
1=
0<
17
16
03
00
0/
0.
#200
0!
0&
#210
1!
1&
0A
0;
1:
08
15
02
10
1/
0-
1,
0+
0*
#220
0!
0&
#230
1!
1&
1A
1>
0=
1<
1;
09
14
13
01
00
1.
1-
1*
0)
#240
0!
0&
#250
1!
1&
0C
b1010100000111 B
1E
0A
0@
0>
1=
0<
0;
07
06
05
11
0-
0,
1+
#260
0!
0&
#270
1!
1&
b0 B
1C
0D
0E
#280
0!
0&
#290
1!
1&
0C
1D
b1010100000111 B
1E
1>
1;
19
18
16
03
0.
0+
1)
#300
0!
0&
#310
1!
1&
b0 B
1C
0D
0E
#320
0!
0&
#330
1!
1&
1D
1A
1@
0=
1<
0:
17
13
10
1,
#340
0!
0&
#350
1!
1&
0@
1=
0<
0;
1:
09
07
06
15
03
01
1.
0,
0)
#360
0!
0&
#370
1!
1&
0C
b1010100000111 B
1E
1@
0>
0=
1;
0:
17
04
13
12
00
0/
1-
1+
1)
#380
0!
0&
#390
1!
1&
b0 B
1C
0D
0E
#400
0!
0&
#410
1!
1&
1D
0A
0;
19
08
07
16
14
03
1/
0.
0+
#420
0!
0&
#430
1!
1&
1A
0@
1>
1=
1<
1;
09
18
17
04
13
0/
1+
0*
#440
0!
0&
#450
1!
1&
1?
0>
0<
1:
19
07
05
02
10
1.
1*
#460
0!
0&
#470
1!
1&
1@
0=
08
06
03
12
00
0.
1,
0*
0)
#480
0!
0&
#490
1!
1&
0C
b1010100000111 B
1E
0A
0@
1>
0;
09
16
13
1.
0-
0,
0+
1*
#500
0!
0&
#510
1!
1&
b0 B
1C
0D
0E
#520
0!
0&
#530
1!
1&
0C
1D
b1010100000111 B
1E
0(
#540
0!
0&
#550
1!
1&
b0 B
0D
0E
